Data Manipulation 1
…
### `select()`: Select columns

.panelset[
.panel[.panel-name[single column]

View only `lead_time` (number of days between booking and arrival date):
.pull-left[

```r
select(hotels, lead_time)
```

```
# A tibble: 119,390 x 1
   lead_time
       <dbl>
 1       342
 2       737
 3         7
 4        13
 5        14
 6        14
 7         0
 8         9
 9        85
10        75
# ... with 119,380 more rows
```
…
View only the `hotel` type and `lead_time` columns:

```r
select(hotels, hotel, lead_time)
```

```
# A tibble: 119,390 x 2
   hotel        lead_time
   <chr>            <dbl>
 1 Resort Hotel       342
 2 Resort Hotel       737
 3 Resort Hotel         7
 4 Resort Hotel        13
 5 Resort Hotel        14
 6 Resort Hotel        14
 7 Resort Hotel         0
 8 Resort Hotel         9
 9 Resort Hotel        85
10 Resort Hotel        75
# ... with 119,380 more rows
```
]

.panel[.panel-name[exclude columns]

- We saw earlier that `select()` keeps variables
- `select()` can also exclude variables, using the `-` sign

.tiny[

```r
select(hotels, -agent) 
```

```
# A tibble: 119,390 x 31
   hotel  is_ca~1 lead_~2 arriv~3 arriv~4 arriv~5 arriv~6 stays~7 stays~8 adults
   <chr>    <dbl>   <dbl>   <dbl> <chr>     <dbl>   <dbl>   <dbl>   <dbl>  <dbl>
 1 Resor~       0     342    2015 July         27       1       0       0      2
 2 Resor~       0     737    2015 July         27       1       0       0      2
 3 Resor~       0       7    2015 July         27       1       0       1      1
 4 Resor~       0      13    2015 July         27       1       0       1      1
 5 Resor~       0      14    2015 July         27       1       0       2      2
 6 Resor~       0      14    2015 July         27       1       0       2      2
 7 Resor~       0       0    2015 July         27       1       0       2      2
 8 Resor~       0       9    2015 July         27       1       0       2      2
 9 Resor~       1      85    2015 July         27       1       0       3      2
10 Resor~       1      75    2015 July         27       1       0       3      2
# ... with 119,380 more rows, 21 more variables: children <dbl>, babies <dbl>,
#   meal <chr>, country <chr>, market_segment <chr>,
#   distribution_channel <chr>, is_repeated_guest <dbl>,
#   previous_cancellations <dbl>, previous_bookings_not_canceled <dbl>,
#   reserved_room_type <chr>, assigned_room_type <chr>, booking_changes <dbl>,
#   deposit_type <chr>, company <chr>, days_in_waiting_list <dbl>,
#   customer_type <chr>, adr <dbl>, required_car_parking_spaces <dbl>, ...
```
…
```r
select(hotels, hotel:arrival_date_month) 
```

```
# A tibble: 119,390 x 5
   hotel        is_canceled lead_time arrival_date_year arrival_date_month
   <chr>              <dbl>     <dbl>             <dbl> <chr>             
 1 Resort Hotel           0       342              2015 July              
 2 Resort Hotel           0       737              2015 July              
 3 Resort Hotel           0         7              2015 July              
 4 Resort Hotel           0        13              2015 July              
 5 Resort Hotel           0        14              2015 July              
 6 Resort Hotel           0        14              2015 July              
 7 Resort Hotel           0         0              2015 July              
 8 Resort Hotel           0         9              2015 July              
 9 Resort Hotel           1        85              2015 July              
10 Resort Hotel           1        75              2015 July              
# ... with 119,380 more rows
```
]]
]
.panel[.panel-name[starts_with]

- We can also select columns with certain characteristics
.tiny[

```r
select(hotels, starts_with("arrival"))
```

```
# A tibble: 119,390 x 4
   arrival_date_year arrival_date_month arrival_date_week_number arrival_date_~1
               <dbl> <chr>                                 <dbl>           <dbl>
 1              2015 July                                     27               1
 2              2015 July                                     27               1
 3              2015 July                                     27               1
 4              2015 July                                     27               1
 5              2015 July                                     27               1
 6              2015 July                                     27               1
 7              2015 July                                     27               1
 8              2015 July                                     27               1
 9              2015 July                                     27               1
10              2015 July                                     27               1
# ... with 119,380 more rows, and abbreviated variable name
#   1: arrival_date_day_of_month
```
]
]

.panel[.panel-name[ends_with]

- We can also select columns with certain characteristics

.tiny[

```r
select(hotels, ends_with("type")) 
```

```
# A tibble: 119,390 x 4
   reserved_room_type assigned_room_type deposit_type customer_type
   <chr>              <chr>              <chr>        <chr>        
 1 C                  C                  No Deposit   Transient    
 2 C                  C                  No Deposit   Transient    
 3 A                  C                  No Deposit   Transient    
 4 A                  A                  No Deposit   Transient    
 5 A                  A                  No Deposit   Transient    
 6 A                  A                  No Deposit   Transient    
 7 C                  C                  No Deposit   Transient    
 8 C                  C                  No Deposit   Transient    
 9 A                  A                  No Deposit   Transient    
10 D                  D                  No Deposit   Transient    
# ... with 119,380 more rows
```
…
## `select()`, then `arrange()`

What if we wanted to select these columns, and then sort the data in order of lead time?

.small[

```r
hotels %>%
  select(hotel, lead_time) %>%
  arrange(lead_time)
```

```
# A tibble: 119,390 x 2
   hotel        lead_time
   <chr>            <dbl>
 1 Resort Hotel         0
 2 Resort Hotel         0
 3 Resort Hotel         0
 4 Resort Hotel         0
 5 Resort Hotel         0
 6 Resort Hotel         0
 7 Resort Hotel         0
 8 Resort Hotel         0
 9 Resort Hotel         0
10 Resort Hotel         0
# ... with 119,380 more rows
```
…
.pull-left[
- Start with the data frame `hotels`, and pass it to the `select()` function,
]
.pull-right[
.small[

```r
*hotels %>%
  select(hotel, lead_time) %>%
  arrange(lead_time)
```

```
# A tibble: 119,390 x 2
   hotel        lead_time
   <chr>            <dbl>
 1 Resort Hotel         0
 2 Resort Hotel         0
 3 Resort Hotel         0
 4 Resort Hotel         0
 5 Resort Hotel         0
 6 Resort Hotel         0
 7 Resort Hotel         0
 8 Resort Hotel         0
 9 Resort Hotel         0
10 Resort Hotel         0
# ... with 119,380 more rows
```
…
.pull-left[
- Start with the data frame `hotels`, and pass it to the `select()` function,
- then we select the variables `hotel` and `lead_time`,
]
.pull-right[
.small[

```r
hotels %>%
* select(hotel, lead_time) %>%
  arrange(lead_time)
```

```
# A tibble: 119,390 x 2
   hotel        lead_time
   <chr>            <dbl>
 1 Resort Hotel         0
 2 Resort Hotel         0
 3 Resort Hotel         0
 4 Resort Hotel         0
 5 Resort Hotel         0
 6 Resort Hotel         0
 7 Resort Hotel         0
 8 Resort Hotel         0
 9 Resort Hotel         0
10 Resort Hotel         0
# ... with 119,380 more rows
```
…
```r
hotels %>%
  select(hotel, lead_time) %>% 
* arrange(lead_time)
```

```
# A tibble: 119,390 x 2
   hotel        lead_time
   <chr>            <dbl>
 1 Resort Hotel         0
 2 Resort Hotel         0
 3 Resort Hotel         0
 4 Resort Hotel         0
 5 Resort Hotel         0
 6 Resort Hotel         0
 7 Resort Hotel         0
 8 Resort Hotel         0
 9 Resort Hotel         0
10 Resort Hotel         0
# ... with 119,380 more rows
```
…
- We saw earlier that `arrange()` defaults to ascending order

- For descending order, use `desc()`

.pull-left[

```r
hotels %>%
  select(hotel, lead_time) %>% 
  arrange(lead_time)
```

```
# A tibble: 119,390 x 2
   hotel        lead_time
   <chr>            <dbl>
 1 Resort Hotel         0
 2 Resort Hotel         0
 3 Resort Hotel         0
 4 Resort Hotel         0
 5 Resort Hotel         0
 6 Resort Hotel         0
 7 Resort Hotel         0
 8 Resort Hotel         0
 9 Resort Hotel         0
10 Resort Hotel         0
# ... with 119,380 more rows
```
]
.pull-right[

```r
hotels %>%
  select(hotel, lead_time) %>% 
  arrange(desc(lead_time))
```

```
# A tibble: 119,390 x 2
   hotel        lead_time
   <chr>            <dbl>
 1 Resort Hotel       737
 2 Resort Hotel       709
 3 City Hotel         629
 4 City Hotel         629
 5 City Hotel         629
 6 City Hotel         629
 7 City Hotel         629
 8 City Hotel         629
 9 City Hotel         629
10 City Hotel         629
# ... with 119,380 more rows
```
…
---

## `filter()` to select a subset of rows

.small[

```r
# bookings in City Hotels
hotels %>%
  filter(hotel == "City Hotel") 
```

```
# A tibble: 79,330 x 32
   hotel  is_ca~1 lead_~2 arriv~3 arriv~4 arriv~5 arriv~6 stays~7 stays~8 adults
   <chr>    <dbl>   <dbl>   <dbl> <chr>     <dbl>   <dbl>   <dbl>   <dbl>  <dbl>
 1 City ~       0       6    2015 July         27       1       0       2      1
 2 City ~       1      88    2015 July         27       1       0       4      2
 3 City ~       1      65    2015 July         27       1       0       4      1
 4 City ~       1      92    2015 July         27       1       2       4      2
 5 City ~       1     100    2015 July         27       2       0       2      2
 6 City ~       1      79    2015 July         27       2       0       3      2
 7 City ~       0       3    2015 July         27       2       0       3      1
 8 City ~       1      63    2015 July         27       2       1       3      1
 9 City ~       1      62    2015 July         27       2       2       3      2
10 City ~       1      62    2015 July         27       2       2       3      2
# ... with 79,320 more rows, 22 more variables: children <dbl>, babies <dbl>,
#   meal <chr>, country <chr>, market_segment <chr>,
#   distribution_channel <chr>, is_repeated_guest <dbl>,
#   previous_cancellations <dbl>, previous_bookings_not_canceled <dbl>,
#   reserved_room_type <chr>, assigned_room_type <chr>, booking_changes <dbl>,
#   deposit_type <chr>, agent <chr>, company <chr>, days_in_waiting_list <dbl>,
#   customer_type <chr>, adr <dbl>, required_car_parking_spaces <dbl>, ...
```
…
---

## `filter()` for many conditions at once

```r
hotels %>%
  filter( 
    adults == 0,     
    children >= 1    
    ) %>% 
  select(adults, babies, children)
```

```
# A tibble: 223 x 3
   adults babies children
    <dbl>  <dbl>    <dbl>
 1      0      0        3
 2      0      0        2
 3      0      0        2
 4      0      0        2
 5      0      0        2
 6      0      0        3
 7      0      1        2
 8      0      0        2
 9      0      0        2
10      0      0        2
# ... with 213 more rows
```
…
## `filter()` for more complex conditions

```r
# bookings with no adults and some children or babies in the room
hotels %>%
  filter( 
    adults == 0,     
    children >= 1 | babies >= 1   
    ) %>%
  select(adults, babies, children)
```

```
# A tibble: 223 x 3
   adults babies children
    <dbl>  <dbl>    <dbl>
 1      0      0        3
 2      0      0        2
 3      0      0        2
 4      0      0        2
 5      0      0        2
 6      0      0        3
 7      0      1        2
 8      0      0        2
 9      0      0        2
10      0      0        2
# ... with 213 more rows
```
…
---

## `mutate()` to add a new variable

```r
hotels %>%
  mutate(little_ones = children + babies) %>% 
  select(children, babies, little_ones) %>%
  arrange(desc(little_ones))
```

```
# A tibble: 119,390 x 3
   children babies little_ones
      <dbl>  <dbl>       <dbl>
 1       10      0          10
 2        0     10          10
 3        0      9           9
 4        2      1           3
 5        2      1           3
 6        2      1           3
 7        3      0           3
 8        2      1           3
 9        2      1           3
10        3      0           3
# ... with 119,380 more rows
```
…
