Data visualization 2
…
```
Error in select(hotel, lead_time): object 'hotel' not found
```

✅

```r
hotels %>%
  select(hotel, lead_time)
```

.tiny[

```
# A tibble: 119,390 × 2
   hotel        lead_time
   <chr>            <dbl>
 1 Resort Hotel       342
 2 Resort Hotel       737
 3 Resort Hotel         7
 4 Resort Hotel        13
 5 Resort Hotel        14
 6 Resort Hotel        14
 7 Resort Hotel         0
 8 Resort Hotel         9
 9 Resort Hotel        85
10 Resort Hotel        75
# … with 119,380 more rows
```
…
